﻿DPF1	ENSG00000011332	ENSG00000011332.20	double PHD fingers 1 [Source:HGNC Symbol;Acc:HGNC:20225]	19	protein_coding
ZBTB32	ENSG00000011590	ENSG00000011590.14	zinc finger and BTB domain containing 32 [Source:HGNC Symbol;Acc:HGNC:16763]	19	protein_coding
WNT8A	ENSG00000061492	ENSG00000061492.12	Wnt family member 8A [Source:HGNC Symbol;Acc:HGNC:12788]	5	protein_coding
PRLH	ENSG00000071677	ENSG00000071677.1	prolactin releasing hormone [Source:HGNC Symbol;Acc:HGNC:17945]	2	protein_coding
CACNG5	ENSG00000075429	ENSG00000075429.9	calcium voltage-gated channel auxiliary subunit gamma 5 [Source:HGNC Symbol;Acc:HGNC:1409]	17	protein_coding
PNPLA5	ENSG00000100341	ENSG00000100341.12	patatin like phospholipase domain containing 5 [Source:HGNC Symbol;Acc:HGNC:24888]	22	protein_coding
VSIG1	ENSG00000101842	ENSG00000101842.14	V-set and immunoglobulin domain containing 1 [Source:HGNC Symbol;Acc:HGNC:28675]	X	protein_coding
PPP1R2C	ENSG00000102055	ENSG00000102055.7	PPP1R2C family member C [Source:HGNC Symbol;Acc:HGNC:16324]	X	protein_coding
GPR50	ENSG00000102195	ENSG00000102195.10	G protein-coupled receptor 50 [Source:HGNC Symbol;Acc:HGNC:4506]	X	protein_coding
KLC3	ENSG00000104892	ENSG00000104892.17	kinesin light chain 3 [Source:HGNC Symbol;Acc:HGNC:20717]	19	protein_coding
DKKL1	ENSG00000104901	ENSG00000104901.7	dickkopf like acrosomal protein 1 [Source:HGNC Symbol;Acc:HGNC:16528]	19	protein_coding
TLE6	ENSG00000104953	ENSG00000104953.20	TLE family member 6, subcortical maternal complex member [Source:HGNC Symbol;Acc:HGNC:30788]	19	protein_coding
CD79A	ENSG00000105369	ENSG00000105369.10	CD79a molecule [Source:HGNC Symbol;Acc:HGNC:1698]	19	protein_coding
CRX	ENSG00000105392	ENSG00000105392.16	cone-rod homeobox [Source:HGNC Symbol;Acc:HGNC:2383]	19	protein_coding
CCDC114	ENSG00000105479	ENSG00000105479.16	coiled-coil domain containing 114 [Source:HGNC Symbol;Acc:HGNC:26560]	19	protein_coding
SIGLEC5	ENSG00000105501	ENSG00000105501.12	sialic acid binding Ig like lectin 5 [Source:HGNC Symbol;Acc:HGNC:10874]	19	protein_coding
FGF21	ENSG00000105550	ENSG00000105550.10	fibroblast growth factor 21 [Source:HGNC Symbol;Acc:HGNC:3678]	19	protein_coding
DLX5	ENSG00000105880	ENSG00000105880.7	distal-less homeobox 5 [Source:HGNC Symbol;Acc:HGNC:2918]	7	protein_coding
CCL1	ENSG00000108702	ENSG00000108702.4	C-C motif chemokine ligand 1 [Source:HGNC Symbol;Acc:HGNC:10609]	17	protein_coding
CWH43	ENSG00000109182	ENSG00000109182.12	cell wall biogenesis 43 C-terminal homolog [Source:HGNC Symbol;Acc:HGNC:26133]	4	protein_coding
ODAM	ENSG00000109205	ENSG00000109205.16	odontogenic, ameloblast associated [Source:HGNC Symbol;Acc:HGNC:26043]	4	protein_coding
IL23A	ENSG00000110944	ENSG00000110944.9	interleukin 23 subunit alpha [Source:HGNC Symbol;Acc:HGNC:15488]	12	protein_coding
ART4	ENSG00000111339	ENSG00000111339.12	ADP-ribosyltransferase 4 (inactive) (Dombrock blood group) [Source:HGNC Symbol;Acc:HGNC:726]	12	protein_coding
ULBP1	ENSG00000111981	ENSG00000111981.5	UL16 binding protein 1 [Source:HGNC Symbol;Acc:HGNC:14893]	6	protein_coding
TREML2	ENSG00000112195	ENSG00000112195.9	triggering receptor expressed on myeloid cells like 2 [Source:HGNC Symbol;Acc:HGNC:21092]	6	protein_coding
HAVCR1	ENSG00000113249	ENSG00000113249.13	hepatitis A virus cellular receptor 1 [Source:HGNC Symbol;Acc:HGNC:17866]	5	protein_coding
CRYGD	ENSG00000118231	ENSG00000118231.5	crystallin gamma D [Source:HGNC Symbol;Acc:HGNC:2411]	2	protein_coding
GHRH	ENSG00000118702	ENSG00000118702.10	growth hormone releasing hormone [Source:HGNC Symbol;Acc:HGNC:4265]	20	protein_coding
INSL6	ENSG00000120210	ENSG00000120210.8	insulin like 6 [Source:HGNC Symbol;Acc:HGNC:6089]	9	protein_coding
TNFSF18	ENSG00000120337	ENSG00000120337.9	TNF superfamily member 18 [Source:HGNC Symbol;Acc:HGNC:11932]	1	protein_coding
TNFRSF8	ENSG00000120949	ENSG00000120949.15	TNF receptor superfamily member 8 [Source:HGNC Symbol;Acc:HGNC:11923]	1	protein_coding
A1BG	ENSG00000121410	ENSG00000121410.12	alpha-1-B glycoprotein [Source:HGNC Symbol;Acc:HGNC:5]	19	protein_coding
CSTA	ENSG00000121552	ENSG00000121552.4	cystatin A [Source:HGNC Symbol;Acc:HGNC:2481]	3	protein_coding
HCRTR1	ENSG00000121764	ENSG00000121764.11	hypocretin receptor 1 [Source:HGNC Symbol;Acc:HGNC:4848]	1	protein_coding
SPATA1	ENSG00000122432	ENSG00000122432.18	spermatogenesis associated 1 [Source:HGNC Symbol;Acc:HGNC:14682]	1	protein_coding
HOXC13	ENSG00000123364	ENSG00000123364.5	homeobox C13 [Source:HGNC Symbol;Acc:HGNC:5125]	12	protein_coding
NFE2	ENSG00000123405	ENSG00000123405.14	nuclear factor, erythroid 2 [Source:HGNC Symbol;Acc:HGNC:7780]	12	protein_coding
HJURP	ENSG00000123485	ENSG00000123485.12	Holliday junction recognition protein [Source:HGNC Symbol;Acc:HGNC:25444]	2	protein_coding
H2BW1	ENSG00000123569	ENSG00000123569.9	H2B.W histone 1 [Source:HGNC Symbol;Acc:HGNC:27252]	X	protein_coding
GTSF1L	ENSG00000124196	ENSG00000124196.6	gametocyte specific factor 1 like [Source:HGNC Symbol;Acc:HGNC:16198]	20	protein_coding
IL9R	ENSG00000124334	ENSG00000124334.17	interleukin 9 receptor [Source:HGNC Symbol;Acc:HGNC:6030]	X	protein_coding
LYPD3	ENSG00000124466	ENSG00000124466.9	LY6/PLAUR domain containing 3 [Source:HGNC Symbol;Acc:HGNC:24880]	19	protein_coding
SLC17A1	ENSG00000124568	ENSG00000124568.12	solute carrier family 17 member 1 [Source:HGNC Symbol;Acc:HGNC:10929]	6	protein_coding
SIRPD	ENSG00000125900	ENSG00000125900.13	signal regulatory protein delta [Source:HGNC Symbol;Acc:HGNC:16248]	20	protein_coding
SSX1	ENSG00000126752	ENSG00000126752.8	SSX family member 1 [Source:HGNC Symbol;Acc:HGNC:11335]	X	protein_coding
GNGT1	ENSG00000127928	ENSG00000127928.13	G protein subunit gamma transducin 1 [Source:HGNC Symbol;Acc:HGNC:4411]	7	protein_coding
VPREB3	ENSG00000128218	ENSG00000128218.8	V-set pre-B cell surrogate light chain 3 [Source:HGNC Symbol;Acc:HGNC:12710]	22	protein_coding
INS-IGF2	ENSG00000129965	ENSG00000129965.15	INS-IGF2 readthrough [Source:HGNC Symbol;Acc:HGNC:33527]	11	protein_coding
CACNG6	ENSG00000130433	ENSG00000130433.8	calcium voltage-gated channel auxiliary subunit gamma 6 [Source:HGNC Symbol;Acc:HGNC:13625]	19	protein_coding
IQCN	ENSG00000130518	ENSG00000130518.17	IQ motif containing N [Source:HGNC Symbol;Acc:HGNC:29350]	19	protein_coding
HRC	ENSG00000130528	ENSG00000130528.12	histidine rich calcium binding protein [Source:HGNC Symbol;Acc:HGNC:5178]	19	protein_coding
TNNT3	ENSG00000130595	ENSG00000130595.19	troponin T3, fast skeletal type [Source:HGNC Symbol;Acc:HGNC:11950]	11	protein_coding
BPIFA2	ENSG00000131050	ENSG00000131050.11	BPI fold containing family A member 2 [Source:HGNC Symbol;Acc:HGNC:16203]	20	protein_coding
TEX101	ENSG00000131126	ENSG00000131126.19	testis expressed 101 [Source:HGNC Symbol;Acc:HGNC:30722]	19	protein_coding
CCL25	ENSG00000131142	ENSG00000131142.14	C-C motif chemokine ligand 25 [Source:HGNC Symbol;Acc:HGNC:10624]	19	protein_coding
TNS4	ENSG00000131746	ENSG00000131746.13	tensin 4 [Source:HGNC Symbol;Acc:HGNC:24352]	17	protein_coding
RTBDN	ENSG00000132026	ENSG00000132026.15	retbindin [Source:HGNC Symbol;Acc:HGNC:30310]	19	protein_coding
FCRLA	ENSG00000132185	ENSG00000132185.18	Fc receptor like A [Source:HGNC Symbol;Acc:HGNC:18504]	1	protein_coding
LGALS12	ENSG00000133317	ENSG00000133317.16	galectin 12 [Source:HGNC Symbol;Acc:HGNC:15788]	11	protein_coding
DYDC2	ENSG00000133665	ENSG00000133665.13	DPY30 domain containing 2 [Source:HGNC Symbol;Acc:HGNC:23468]	10	protein_coding
SPX	ENSG00000134548	ENSG00000134548.11	spexin hormone [Source:HGNC Symbol;Acc:HGNC:28139]	12	protein_coding
ACRV1	ENSG00000134940	ENSG00000134940.14	acrosomal vesicle protein 1 [Source:HGNC Symbol;Acc:HGNC:127]	11	protein_coding
AMHR2	ENSG00000135409	ENSG00000135409.11	anti-Mullerian hormone receptor type 2 [Source:HGNC Symbol;Acc:HGNC:465]	12	protein_coding
FAM186B	ENSG00000135436	ENSG00000135436.8	family with sequence similarity 186 member B [Source:HGNC Symbol;Acc:HGNC:25296]	12	protein_coding
TROAP	ENSG00000135451	ENSG00000135451.13	trophinin associated protein [Source:HGNC Symbol;Acc:HGNC:12327]	12	protein_coding
SLC26A10	ENSG00000135502	ENSG00000135502.19	solute carrier family 26 member 10 [Source:HGNC Symbol;Acc:HGNC:14470]	12	transcribed_unitary_pseudogene
EMX1	ENSG00000135638	ENSG00000135638.14	empty spiracles homeobox 1 [Source:HGNC Symbol;Acc:HGNC:3340]	2	protein_coding
SIT1	ENSG00000137078	ENSG00000137078.9	signaling threshold regulating transmembrane adaptor 1 [Source:HGNC Symbol;Acc:HGNC:17710]	9	protein_coding
INHBE	ENSG00000139269	ENSG00000139269.3	inhibin subunit beta E [Source:HGNC Symbol;Acc:HGNC:24029]	12	protein_coding
SLC39A5	ENSG00000139540	ENSG00000139540.12	solute carrier family 39 member 5 [Source:HGNC Symbol;Acc:HGNC:20502]	12	protein_coding
CELA1	ENSG00000139610	ENSG00000139610.2	chymotrypsin like elastase 1 [Source:HGNC Symbol;Acc:HGNC:3308]	12	protein_coding
CMTM2	ENSG00000140932	ENSG00000140932.10	CKLF like MARVEL transmembrane domain containing 2 [Source:HGNC Symbol;Acc:HGNC:19173]	16	protein_coding
SPACA3	ENSG00000141316	ENSG00000141316.13	sperm acrosome associated 3 [Source:HGNC Symbol;Acc:HGNC:16260]	17	protein_coding
ASGR1	ENSG00000141505	ENSG00000141505.12	asialoglycoprotein receptor 1 [Source:HGNC Symbol;Acc:HGNC:742]	17	protein_coding
CBLN2	ENSG00000141668	ENSG00000141668.10	cerebellin 2 precursor [Source:HGNC Symbol;Acc:HGNC:1544]	18	protein_coding
ARL5C	ENSG00000141748	ENSG00000141748.13	ADP ribosylation factor like GTPase 5C [Source:HGNC Symbol;Acc:HGNC:31111]	17	protein_coding
ACP4	ENSG00000142513	ENSG00000142513.6	acid phosphatase 4 [Source:HGNC Symbol;Acc:HGNC:14376]	19	protein_coding
KLK3	ENSG00000142515	ENSG00000142515.15	kallikrein related peptidase 3 [Source:HGNC Symbol;Acc:HGNC:6364]	19	protein_coding
PTH2	ENSG00000142538	ENSG00000142538.2	parathyroid hormone 2 [Source:HGNC Symbol;Acc:HGNC:30828]	19	protein_coding
REG3G	ENSG00000143954	ENSG00000143954.13	regenerating family member 3 gamma [Source:HGNC Symbol;Acc:HGNC:29595]	2	protein_coding
TRIM43B	ENSG00000144010	ENSG00000144010.10	tripartite motif containing 43B [Source:HGNC Symbol;Acc:HGNC:37146]	2	protein_coding
TRIM43	ENSG00000144015	ENSG00000144015.5	tripartite motif containing 43 [Source:HGNC Symbol;Acc:HGNC:19015]	2	protein_coding
ACKR2	ENSG00000144648	ENSG00000144648.16	atypical chemokine receptor 2 [Source:HGNC Symbol;Acc:HGNC:1565]	3	protein_coding
UCN2	ENSG00000145040	ENSG00000145040.4	urocortin 2 [Source:HGNC Symbol;Acc:HGNC:18414]	3	protein_coding
UGT3A1	ENSG00000145626	ENSG00000145626.12	UDP glycosyltransferase family 3 member A1 [Source:HGNC Symbol;Acc:HGNC:26625]	5	protein_coding
TRIM50	ENSG00000146755	ENSG00000146755.11	tripartite motif containing 50 [Source:HGNC Symbol;Acc:HGNC:19017]	7	protein_coding
NXF3	ENSG00000147206	ENSG00000147206.17	nuclear RNA export factor 3 [Source:HGNC Symbol;Acc:HGNC:8073]	X	protein_coding
ARHGAP36	ENSG00000147256	ENSG00000147256.12	Rho GTPase activating protein 36 [Source:HGNC Symbol;Acc:HGNC:26388]	X	protein_coding
FATE1	ENSG00000147378	ENSG00000147378.11	fetal and adult testis expressed 1 [Source:HGNC Symbol;Acc:HGNC:24683]	X	protein_coding
LCN9	ENSG00000148386	ENSG00000148386.9	lipocalin 9 [Source:HGNC Symbol;Acc:HGNC:17442]	9	protein_coding
SCGB1A1	ENSG00000149021	ENSG00000149021.7	secretoglobin family 1A member 1 [Source:HGNC Symbol;Acc:HGNC:12523]	11	protein_coding
SLC22A8	ENSG00000149452	ENSG00000149452.16	solute carrier family 22 member 8 [Source:HGNC Symbol;Acc:HGNC:10972]	11	protein_coding
SH2D6	ENSG00000152292	ENSG00000152292.17	SH2 domain containing 6 [Source:HGNC Symbol;Acc:HGNC:30439]	2	protein_coding
TEX29	ENSG00000153495	ENSG00000153495.11	testis expressed 29 [Source:HGNC Symbol;Acc:HGNC:20370]	13	protein_coding
GPR15	ENSG00000154165	ENSG00000154165.5	G protein-coupled receptor 15 [Source:HGNC Symbol;Acc:HGNC:4469]	3	protein_coding
TRIM74	ENSG00000155428	ENSG00000155428.12	tripartite motif containing 74 [Source:HGNC Symbol;Acc:HGNC:17453]	7	protein_coding
RAET1L	ENSG00000155918	ENSG00000155918.8	retinoic acid early transcript 1L [Source:HGNC Symbol;Acc:HGNC:16798]	6	protein_coding
CXCL13	ENSG00000156234	ENSG00000156234.7	C-X-C motif chemokine ligand 13 [Source:HGNC Symbol;Acc:HGNC:10639]	4	protein_coding
LHFPL4	ENSG00000156959	ENSG00000156959.9	LHFPL tetraspan subfamily member 4 [Source:HGNC Symbol;Acc:HGNC:29568]	3	protein_coding
GIP	ENSG00000159224	ENSG00000159224.4	gastric inhibitory polypeptide [Source:HGNC Symbol;Acc:HGNC:4270]	17	protein_coding
CES5A	ENSG00000159398	ENSG00000159398.16	carboxylesterase 5A [Source:HGNC Symbol;Acc:HGNC:26459]	16	protein_coding
PIP	ENSG00000159763	ENSG00000159763.4	prolactin induced protein [Source:HGNC Symbol;Acc:HGNC:8993]	7	protein_coding
TNFRSF13C	ENSG00000159958	ENSG00000159958.7	TNF receptor superfamily member 13C [Source:HGNC Symbol;Acc:HGNC:17755]	22	protein_coding
FBXL13	ENSG00000161040	ENSG00000161040.16	F-box and leucine rich repeat protein 13 [Source:HGNC Symbol;Acc:HGNC:21658]	7	protein_coding
MSLNL	ENSG00000162006	ENSG00000162006.9	mesothelin like [Source:HGNC Symbol;Acc:HGNC:14170]	16	protein_coding
BSND	ENSG00000162399	ENSG00000162399.9	barttin CLCNK type accessory subunit beta [Source:HGNC Symbol;Acc:HGNC:16512]	1	protein_coding
IL24	ENSG00000162892	ENSG00000162892.16	interleukin 24 [Source:HGNC Symbol;Acc:HGNC:11346]	1	protein_coding
FCAMR	ENSG00000162897	ENSG00000162897.16	Fc fragment of IgA and IgM receptor [Source:HGNC Symbol;Acc:HGNC:24692]	1	protein_coding
CRYBA2	ENSG00000163499	ENSG00000163499.12	crystallin beta A2 [Source:HGNC Symbol;Acc:HGNC:2395]	2	protein_coding
DPPA2	ENSG00000163530	ENSG00000163530.4	developmental pluripotency associated 2 [Source:HGNC Symbol;Acc:HGNC:19197]	3	protein_coding
FCRL1	ENSG00000163534	ENSG00000163534.15	Fc receptor like 1 [Source:HGNC Symbol;Acc:HGNC:18509]	1	protein_coding
PPBP	ENSG00000163736	ENSG00000163736.4	pro-platelet basic protein [Source:HGNC Symbol;Acc:HGNC:9240]	4	protein_coding
RTP3	ENSG00000163825	ENSG00000163825.4	receptor transporter protein 3 [Source:HGNC Symbol;Acc:HGNC:15572]	3	protein_coding
SPZ1	ENSG00000164299	ENSG00000164299.7	spermatogenic leucine zipper 1 [Source:HGNC Symbol;Acc:HGNC:30721]	5	protein_coding
CSF2	ENSG00000164400	ENSG00000164400.6	colony stimulating factor 2 [Source:HGNC Symbol;Acc:HGNC:2434]	5	protein_coding
RAET1E	ENSG00000164520	ENSG00000164520.11	retinoic acid early transcript 1E [Source:HGNC Symbol;Acc:HGNC:16793]	6	protein_coding
DEFB1	ENSG00000164825	ENSG00000164825.4	defensin beta 1 [Source:HGNC Symbol;Acc:HGNC:2766]	8	protein_coding
OSR2	ENSG00000164920	ENSG00000164920.9	odd-skipped related transciption factor 2 [Source:HGNC Symbol;Acc:HGNC:15830]	8	protein_coding
SOHLH1	ENSG00000165643	ENSG00000165643.11	spermatogenesis and oogenesis specific basic helix-loop-helix 1 [Source:HGNC Symbol;Acc:HGNC:27845]	9	protein_coding
SMCO2	ENSG00000165935	ENSG00000165935.9	single-pass membrane protein with coiled-coil domains 2 [Source:HGNC Symbol;Acc:HGNC:34448]	12	protein_coding
TBATA	ENSG00000166220	ENSG00000166220.12	thymus, brain and testes associated [Source:HGNC Symbol;Acc:HGNC:23511]	10	protein_coding
C16orf71	ENSG00000166246	ENSG00000166246.14	chromosome 16 open reading frame 71 [Source:HGNC Symbol;Acc:HGNC:25081]	16	protein_coding
CLEC4D	ENSG00000166527	ENSG00000166527.8	C-type lectin domain family 4 member D [Source:HGNC Symbol;Acc:HGNC:14554]	12	protein_coding
JSRP1	ENSG00000167476	ENSG00000167476.10	junctional sarcoplasmic reticulum protein 1 [Source:HGNC Symbol;Acc:HGNC:24963]	19	protein_coding